{
  "project_info": {
    "project_number": "0000000000000",
    "project_id": "mbrc-00000",
    "storage_bucket": "mbrc-00000.appspot.com"
  },
  "client": [
    {
      "client_info": {
        "mobilesdk_app_id": "0:0000000000000:android:0000000000000000000000",
        "android_client_info": {
          "package_name": "com.kelsos.mbrc.dev"
        }
      },
      "oauth_client": [
        {
          "client_id": "0000000000000-00000000000000000000000000000000.apps.googleusercontent.com",
          "client_type": 3
        }
      ],
      "api_key": [
        {
          "current_key": "00000000000000000000000000000-000000000"
        }
      ],
      "services": {
        "appinvite_service": {
          "other_platform_oauth_client": [
            {
              "client_id": "0000000000000-00000000000000000000000000000000.apps.googleusercontent.com",
              "client_type": 3
            }
          ]
        }
      }
    }
  ],
  "configuration_version": "1"
}
